{
    "python": {
        "tokens": [
            {
                "val": "#",
                "type": "text-modifier-comment",
                "global": "comment"
            },
            {
                "val": "print",
                "type": "print-keyword",
                "global": "print"
            },
            {
                "val": "(",
                "type": "opened-parenthesis-punctuation",
                "global": "opened-parenthesis"
            },
            {
                "val": ")",
                "type": "closed-parenthesis-punctuation",
                "global": "closed-parenthesis"
            },
            {
                "val": "{",
                "type": "opened-brace-punctuation",
                "global": "opened-brace"
            },
            {
                "val": "}",
                "type": "closed-brace-punctuation",
                "global": "closed-brace"
            },
            {
                "val": "[",
                "type": "opened-bracket-punctuation",
                "global": "opened-bracket"
            },
            {
                "val": "]",
                "type": "closed-bracket-punctuation",
                "global": "closed-bracket"
            },
            {
                "val": "if",
                "type": "conditional-keyword-if",
                "global": "if"
            },
            {
                "val": "elif",
                "type": "conditional-keyword-else-if",
                "global": "elif"
            },
            {
                "val": "else",
                "type": "conditional-keyword-else",
                "global": "else"
            },
            {
                "val": "for",
                "type": "loop-keyword-for",
                "global": "for"
            },
            {
                "val": "while",
                "type": "loop-keyword-while",
                "global": "while"
            },
            {
                "val": "in",
                "type": "in-keyword",
                "global": "in"
            },
            {
                "val": "not",
                "type": "conditional-keyword-not",
                "global": "not"
            },
            {
                "val": "and",
                "type": "conditional-keyword-and",
                "global": "and"
            },
            {
                "val": "or",
                "type": "conditional-keyword-or",
                "global": "or"
            },
            {
                "val": "def",
                "type": "function-keyword-def",
                "global": "def"
            },
            {
                "val": "class",
                "type": "class-keyword-class",
                "global": "class"
            },
            {
                "val": "return",
                "type": "return-keyword",
                "global": "return"
            },
            {
                "val": "continue",
                "type": "continue-keyword",
                "global": "continue"
            },
            {
                "val": "break",
                "type": "break-keyword",
                "global": "break"
            },
            {
                "val": "pass",
                "type": "pass-keyword",
                "global": "pass"
            },
            {
                "val": "import",
                "type": "import-keyword-import",
                "global": "import"
            },
            {
                "val": "from",
                "type": "import-keyword-from",
                "global": "from"
            },
            {
                "val": "as",
                "type": "import-keyword-as",
                "global": "as"
            },
            {
                "val": "try",
                "type": "try-keyword-try",
                "global": "try"
            },
            {
                "val": "except",
                "type": "try-keyword-except",
                "global": "except"
            },
            {
                "val": "finally",
                "type": "try-keyword-finally",
                "global": "finally"
            },
            {
                "val": "raise",
                "type": "try-keyword-raise",
                "global": "raise"
            },
            {
                "val": "with",
                "type": "with-keyword-with",
                "global": "with"
            },
            {
                "val": "yield",
                "type": "yield-keyword",
                "global": "yield"
            },
            {
                "val": "del",
                "type": "del-keyword",
                "global": "del"
            },
            {
                "val": "global",
                "type": "global-keyword",
                "global": "global"
            },
            {
                "val": "nonlocal",
                "type": "nonlocal-keyword",
                "global": "nonlocal"
            },
            {
                "val": "assert",
                "type": "assert-keyword",
                "global": "assert"
            },
            {
                "val": "lambda",
                "type": "lambda-keyword",
                "global": "lambda"
            },
            {
                "val": "is",
                "type": "conditional-keyword-is",
                "global": "is"
            },
            {
                "val": "None",
                "type": "constant",
                "global": "None"
            },
            {
                "val": "True",
                "type": "constant",
                "global": "True"
            },
            {
                "val": "False",
                "type": "constant",
                "global": "False"
            },
            {
                "val": "self",
                "type": "self-keyword",
                "global": "self"
            },
            {
                "val": "super",
                "type": "super-keyword",
                "global": "super"
            },
            {
                "val": "int",
                "type": "type-modifier-int",
                "global": "int"
            },
            {
                "val": "float",
                "type": "type-modifier-float",
                "global": "float"
            },
            {
                "val": "str",
                "type": "type-modifier-str",
                "global": "str"
            },
            {
                "val": "bool",
                "type": "type-modifier-bool",
                "global": "bool"
            },
            {
                "val": "list",
                "type": "type-modifier-list",
                "global": "list"
            },
            {
                "val": "tuple",
                "type": "type-modifier-tuple",
                "global": "tuple"
            },
            {
                "val": "dict",
                "type": "type-modifier-dict",
                "global": "dict"
            },
            {
                "val": "set",
                "type": "type-modifier-set",
                "global": "set"
            },
            {
                "val": "range",
                "type": "array-constructor-range",
                "global": "range"
            },
            {
                "val": "len",
                "type": "array-length-getter",
                "global": "length"
            },
            {
                "val": "sum",
                "type": "array-sum",
                "global": "sum"
            },
            {
                "val": "max",
                "type": "array-max",
                "global": "max"
            },
            {
                "val": "min",
                "type": "array-min",
                "global": "min"
            },
            {
                "val": "input",
                "type": "user-input",
                "global": "input"
            },
            {
                "val": "open",
                "type": "file-handling-open",
                "global": "open"
            },
            {
                "val": "close",
                "type": "file-handling-close",
                "global": "close"
            },
            {
                "val": "read",
                "type": "file-handling-read",
                "global": "read"
            },
            {
                "val": "write",
                "type": "file-handling-write",
                "global": "write"
            },
            {
                "val": "readline",
                "type": "file-handling-readline",
                "global": "readline"
            },
            {
                "val": "readlines",
                "type": "file-handling-readlines",
                "global": "readlines"
            },
            {
                "val": "writelines",
                "type": "file-handling-writelines",
                "global": "writelines"
            },
            {
                "val": "seek",
                "type": "file-handling-seek",
                "global": "seek"
            },
            {
                "val": "tell",
                "type": "file-handling-tell",
                "global": "tell"
            },
            {
                "val": "flush",
                "type": "file-handling-flush",
                "global": "flush"
            },
            {
                "val": "isinstance",
                "type": "isinstance",
                "global": "isinstance"
            },
            {
                "val": "issubclass",
                "type": "issubclass",
                "global": "issubclass"
            },
            {
                "val": "abs",
                "type": "abs",
                "global": "abs"
            },
            {
                "val": "all",
                "type": "all",
                "global": "all"
            },
            {
                "val": "any",
                "type": "any",
                "global": "any"
            },
            {
                "val": "ascii",
                "type": "ascii",
                "global": "ascii"
            },
            {
                "val": "bin",
                "type": "bin",
                "global": "bin"
            },
            {
                "val": "bool",
                "type": "bool",
                "global": "bool"
            },
            {
                "val": "=",
                "type": "assignment-operator-equal",
                "global": "assignment"
            },
            {
                "val": "+=",
                "type": "assignment-operator-plus-equal",
                "global": "assignment"
            },
            {
                "val": "-=",
                "type": "assignment-operator-minus-equal",
                "global": "assignment"
            },
            {
                "val": "*=",
                "type": "assignment-operator-multiply-equal",
                "global": "assignment"
            },
            {
                "val": "/=",
                "type": "assignment-operator-divide-equal",
                "global": "assignment"
            },
            {
                "val": "//=",
                "type": "assignment-operator-floor-divide-equal",
                "global": "assignment"
            },
            {
                "val": "%=",
                "type": "assignment-operator-modulo-equal",
                "global": "assignment"
            },
            {
                "val": "**=",
                "type": "assignment-operator-power-equal",
                "global": "assignment"
            },
            {
                "val": "&=",
                "type": "assignment-operator-bitwise-and-equal",
                "global": "assignment"
            },
            {
                "val": "|=",
                "type": "assignment-operator-bitwise-or-equal",
                "global": "assignment"
            },
            {
                "val": "^=",
                "type": "assignment-operator-bitwise-xor-equal",
                "global": "assignment"
            },
            {
                "val": "<<=",
                "type": "assignment-operator-left-shift-equal",
                "global": "assignment"
            },
            {
                "val": ">>=",
                "type": "assignment-operator-right-shift-equal",
                "global": "assignment"
            },
            {
                "val": "==",
                "type": "comparison-operator-equal",
                "global": "comparison"
            },
            {
                "val": "!=",
                "type": "comparison-operator-not-equal",
                "global": "comparison"
            },
            {
                "val": ">",
                "type": "comparison-operator-greater-than",
                "global": "comparison"
            },
            {
                "val": ">=",
                "type": "comparison-operator-greater-than-equal",
                "global": "comparison"
            },
            {
                "val": "<",
                "type": "comparison-operator-less-than",
                "global": "comparison"
            },
            {
                "val": "<=",
                "type": "comparison-operator-less-than-equal",
                "global": "comparison"
            },
            {
                "val": "+",
                "type": "arithmetic-operator-plus",
                "global": "arithmetic"
            },
            {
                "val": "-",
                "type": "arithmetic-operator-minus",
                "global": "arithmetic"
            },
            {
                "val": "*",
                "type": "arithmetic-operator-multiply",
                "global": "arithmetic"
            },
            {
                "val": "/",
                "type": "arithmetic-operator-divide",
                "global": "arithmetic"
            },
            {
                "val": "//",
                "type": "arithmetic-operator-floor-divide",
                "global": "arithmetic"
            },
            {
                "val": "%",
                "type": "arithmetic-operator-modulo",
                "global": "arithmetic"
            },
            {
                "val": "**",
                "type": "arithmetic-operator-power",
                "global": "arithmetic"
            },
            {
                "val": "~",
                "type": "bitwise-operator-invert",
                "global": "bitwise"
            },
            {
                "val": "&",
                "type": "bitwise-operator-and",
                "global": "bitwise"
            },
            {
                "val": "|",
                "type": "bitwise-operator-or",
                "global": "bitwise"
            },
            {
                "val": "^",
                "type": "bitwise-operator-xor",
                "global": "bitwise"
            },
            {
                "val": "<<",
                "type": "bitwise-operator-left-shift",
                "global": "bitwise"
            },
            {
                "val": ">>",
                "type": "bitwise-operator-right-shift",
                "global": "bitwise"
            }
        ]
    }
}